{
	"default_init_timeout":"0",
	"brute_force_set":[
		"a",
		"b",
		"c",
		"d",
		"e",
		"f",
		"g",
		"h",
		"i",
		"j",
		"k",
		"l",
		"m",
		"n",
		"o",
		"p",
		"q",
		"r",
		"s",
		"t",
		"u",
		"v",
		"w",
		"x",
		"y",
		"z"
	],
	"last_execution_sequence":"",
	"robot_directives":[
		{"tab": "0"},
		{"enter": "0"},
		{"shift": "0"},
		{"tab": "0"},
		{"unshift": "0"}
	]
}
